Error in line 7: 3 8:00 Numer 9:00 Powtorzony
Error in line 8: biletExtra 3.23 35
Error in line 11: ? A 2 B
Error in line 12: ? A 1 B 5 D
Error in line 13: 77 8:50 B 9:00 C 10:00
Error in line 14: ? A 1 B 77 D
Error in line 15: ?
Error in line 16: 12
Error in line 17: ? A 1 A
